<?xml version="1.0" encoding="utf-8"?>
<!-- Generator: Adobe Illustrator 19.2.0, SVG Export Plug-In . SVG Version: 6.00 Build 0)  -->
<svg version="1.1" id="Слой_1" xmlns="http://www.w3.org/2000/svg" xmlns:xlink="http://www.w3.org/1999/xlink" x="0px" y="0px"
	 viewBox="0 0 32 32" style="enable-background:new 0 0 32 32;" xml:space="preserve">
<style type="text/css">
	.st0{fill:#FF9800;}
	.st1{fill:none;}
</style>
<title>edit-y</title>
<path class="st0" d="M10.2,9.3H16c0.8,0,1.4-0.6,1.4-1.4c0-0.8-0.6-1.4-1.4-1.4h-5.8c-0.8,0-1.4,0.6-1.4,1.4
	C8.9,8.7,9.5,9.3,10.2,9.3L10.2,9.3z"/>
<path class="st0" d="M17.4,14.5c0-0.8-0.6-1.4-1.4-1.4h-5.8c-0.8,0-1.4,0.6-1.4,1.4c0,0.8,0.6,1.4,1.4,1.4H16
	C16.8,15.9,17.4,15.3,17.4,14.5L17.4,14.5C17.4,14.5,17.4,14.5,17.4,14.5z"/>
<path class="st0" d="M7.5,7.9c0,0.7-0.6,1.3-1.3,1.3c-0.7,0-1.3-0.6-1.3-1.3s0.6-1.3,1.3-1.3h0l0,0C6.9,6.6,7.5,7.2,7.5,7.9L7.5,7.9
	C7.5,7.9,7.5,7.9,7.5,7.9z"/>
<path class="st0" d="M7.5,14.5c0,0.7-0.6,1.3-1.3,1.3c-0.7,0-1.3-0.6-1.3-1.3c0-0.7,0.6-1.3,1.3-1.3l0,0l0,0
	C6.9,13.2,7.5,13.8,7.5,14.5L7.5,14.5C7.5,14.5,7.5,14.5,7.5,14.5z"/>
<path class="st0" d="M31.6,16.9l-5.3-5.3c-0.5-0.5-1.4-0.5-1.9,0c0,0,0,0,0,0l0,0l-1.6,1.6V2.1c0-1.2-1-2.1-2.1-2.1H2.1
	C1,0,0,0.9,0,2.1v18.4c0,1.2,1,2.1,2.1,2.1h11.1l-0.3,0.3c-0.1,0.2-0.3,0.4-0.3,0.6l-1.3,6.9c-0.3,0.6,0,1.4,0.7,1.7
	c0.3,0.1,0.6,0.1,0.9,0l6.7-1.4c0.3,0,0.5-0.1,0.7-0.3l11.4-11.4c0.5-0.5,0.5-1.3,0-1.8l0,0l0,0l0,0L31.6,16.9z M2.6,20.1V2.6h17.6
	v13.2L15.9,20L2.6,20.1L2.6,20.1L2.6,20.1z M18.5,28l-4.3,0.9l0.9-4.3l10.1-10.2l3.5,3.4L18.5,28z"/>
<rect class="st1" width="32" height="32"/>
</svg>
